{
  "audio_files": [
    {
      "verse_key": "101:1",
      "url": "Alafasy/mp3/101001.mp3"
    },
    {
      "verse_key": "101:2",
      "url": "Alafasy/mp3/101002.mp3"
    },
    {
      "verse_key": "101:3",
      "url": "Alafasy/mp3/101003.mp3"
    },
    {
      "verse_key": "101:4",
      "url": "Alafasy/mp3/101004.mp3"
    },
    {
      "verse_key": "101:5",
      "url": "Alafasy/mp3/101005.mp3"
    },
    {
      "verse_key": "101:6",
      "url": "Alafasy/mp3/101006.mp3"
    },
    {
      "verse_key": "101:7",
      "url": "Alafasy/mp3/101007.mp3"
    },
    {
      "verse_key": "101:8",
      "url": "Alafasy/mp3/101008.mp3"
    },
    {
      "verse_key": "101:9",
      "url": "Alafasy/mp3/101009.mp3"
    },
    {
      "verse_key": "101:10",
      "url": "Alafasy/mp3/101010.mp3"
    }
  ],
  "pagination": {
    "per_page": 10,
    "current_page": 1,
    "next_page": 2,
    "total_pages": 2,
    "total_records": 11
  }
}