{
  "audio_files": [
    {
      "verse_key": "11:1",
      "url": "Alafasy/mp3/011001.mp3"
    },
    {
      "verse_key": "11:2",
      "url": "Alafasy/mp3/011002.mp3"
    },
    {
      "verse_key": "11:3",
      "url": "Alafasy/mp3/011003.mp3"
    },
    {
      "verse_key": "11:4",
      "url": "Alafasy/mp3/011004.mp3"
    },
    {
      "verse_key": "11:5",
      "url": "Alafasy/mp3/011005.mp3"
    },
    {
      "verse_key": "11:6",
      "url": "Alafasy/mp3/011006.mp3"
    },
    {
      "verse_key": "11:7",
      "url": "Alafasy/mp3/011007.mp3"
    },
    {
      "verse_key": "11:8",
      "url": "Alafasy/mp3/011008.mp3"
    },
    {
      "verse_key": "11:9",
      "url": "Alafasy/mp3/011009.mp3"
    },
    {
      "verse_key": "11:10",
      "url": "Alafasy/mp3/011010.mp3"
    }
  ],
  "pagination": {
    "per_page": 10,
    "current_page": 1,
    "next_page": 2,
    "total_pages": 13,
    "total_records": 123
  }
}