{
  "audio_files": [
    {
      "verse_key": "13:1",
      "url": "Alafasy/mp3/013001.mp3"
    },
    {
      "verse_key": "13:2",
      "url": "Alafasy/mp3/013002.mp3"
    },
    {
      "verse_key": "13:3",
      "url": "Alafasy/mp3/013003.mp3"
    },
    {
      "verse_key": "13:4",
      "url": "Alafasy/mp3/013004.mp3"
    },
    {
      "verse_key": "13:5",
      "url": "Alafasy/mp3/013005.mp3"
    },
    {
      "verse_key": "13:6",
      "url": "Alafasy/mp3/013006.mp3"
    },
    {
      "verse_key": "13:7",
      "url": "Alafasy/mp3/013007.mp3"
    },
    {
      "verse_key": "13:8",
      "url": "Alafasy/mp3/013008.mp3"
    },
    {
      "verse_key": "13:9",
      "url": "Alafasy/mp3/013009.mp3"
    },
    {
      "verse_key": "13:10",
      "url": "Alafasy/mp3/013010.mp3"
    }
  ],
  "pagination": {
    "per_page": 10,
    "current_page": 1,
    "next_page": 2,
    "total_pages": 5,
    "total_records": 43
  }
}