{
  "audio_files": [
    {
      "verse_key": "16:1",
      "url": "Alafasy/mp3/016001.mp3"
    },
    {
      "verse_key": "16:2",
      "url": "Alafasy/mp3/016002.mp3"
    },
    {
      "verse_key": "16:3",
      "url": "Alafasy/mp3/016003.mp3"
    },
    {
      "verse_key": "16:4",
      "url": "Alafasy/mp3/016004.mp3"
    },
    {
      "verse_key": "16:5",
      "url": "Alafasy/mp3/016005.mp3"
    },
    {
      "verse_key": "16:6",
      "url": "Alafasy/mp3/016006.mp3"
    },
    {
      "verse_key": "16:7",
      "url": "Alafasy/mp3/016007.mp3"
    },
    {
      "verse_key": "16:8",
      "url": "Alafasy/mp3/016008.mp3"
    },
    {
      "verse_key": "16:9",
      "url": "Alafasy/mp3/016009.mp3"
    },
    {
      "verse_key": "16:10",
      "url": "Alafasy/mp3/016010.mp3"
    }
  ],
  "pagination": {
    "per_page": 10,
    "current_page": 1,
    "next_page": 2,
    "total_pages": 13,
    "total_records": 128
  }
}