{
  "audio_files": [
    {
      "verse_key": "19:1",
      "url": "Alafasy/mp3/019001.mp3"
    },
    {
      "verse_key": "19:2",
      "url": "Alafasy/mp3/019002.mp3"
    },
    {
      "verse_key": "19:3",
      "url": "Alafasy/mp3/019003.mp3"
    },
    {
      "verse_key": "19:4",
      "url": "Alafasy/mp3/019004.mp3"
    },
    {
      "verse_key": "19:5",
      "url": "Alafasy/mp3/019005.mp3"
    },
    {
      "verse_key": "19:6",
      "url": "Alafasy/mp3/019006.mp3"
    },
    {
      "verse_key": "19:7",
      "url": "Alafasy/mp3/019007.mp3"
    },
    {
      "verse_key": "19:8",
      "url": "Alafasy/mp3/019008.mp3"
    },
    {
      "verse_key": "19:9",
      "url": "Alafasy/mp3/019009.mp3"
    },
    {
      "verse_key": "19:10",
      "url": "Alafasy/mp3/019010.mp3"
    }
  ],
  "pagination": {
    "per_page": 10,
    "current_page": 1,
    "next_page": 2,
    "total_pages": 10,
    "total_records": 98
  }
}