{
  "audio_files": [
    {
      "verse_key": "2:1",
      "url": "Alafasy/mp3/002001.mp3"
    },
    {
      "verse_key": "2:2",
      "url": "Alafasy/mp3/002002.mp3"
    },
    {
      "verse_key": "2:3",
      "url": "Alafasy/mp3/002003.mp3"
    },
    {
      "verse_key": "2:4",
      "url": "Alafasy/mp3/002004.mp3"
    },
    {
      "verse_key": "2:5",
      "url": "Alafasy/mp3/002005.mp3"
    },
    {
      "verse_key": "2:6",
      "url": "Alafasy/mp3/002006.mp3"
    },
    {
      "verse_key": "2:7",
      "url": "Alafasy/mp3/002007.mp3"
    },
    {
      "verse_key": "2:8",
      "url": "Alafasy/mp3/002008.mp3"
    },
    {
      "verse_key": "2:9",
      "url": "Alafasy/mp3/002009.mp3"
    },
    {
      "verse_key": "2:10",
      "url": "Alafasy/mp3/002010.mp3"
    }
  ],
  "pagination": {
    "per_page": 10,
    "current_page": 1,
    "next_page": 2,
    "total_pages": 29,
    "total_records": 286
  }
}