{
  "audio_files": [
    {
      "verse_key": "21:1",
      "url": "Alafasy/mp3/021001.mp3"
    },
    {
      "verse_key": "21:2",
      "url": "Alafasy/mp3/021002.mp3"
    },
    {
      "verse_key": "21:3",
      "url": "Alafasy/mp3/021003.mp3"
    },
    {
      "verse_key": "21:4",
      "url": "Alafasy/mp3/021004.mp3"
    },
    {
      "verse_key": "21:5",
      "url": "Alafasy/mp3/021005.mp3"
    },
    {
      "verse_key": "21:6",
      "url": "Alafasy/mp3/021006.mp3"
    },
    {
      "verse_key": "21:7",
      "url": "Alafasy/mp3/021007.mp3"
    },
    {
      "verse_key": "21:8",
      "url": "Alafasy/mp3/021008.mp3"
    },
    {
      "verse_key": "21:9",
      "url": "Alafasy/mp3/021009.mp3"
    },
    {
      "verse_key": "21:10",
      "url": "Alafasy/mp3/021010.mp3"
    }
  ],
  "pagination": {
    "per_page": 10,
    "current_page": 1,
    "next_page": 2,
    "total_pages": 12,
    "total_records": 112
  }
}