{
  "audio_files": [
    {
      "verse_key": "22:1",
      "url": "Alafasy/mp3/022001.mp3"
    },
    {
      "verse_key": "22:2",
      "url": "Alafasy/mp3/022002.mp3"
    },
    {
      "verse_key": "22:3",
      "url": "Alafasy/mp3/022003.mp3"
    },
    {
      "verse_key": "22:4",
      "url": "Alafasy/mp3/022004.mp3"
    },
    {
      "verse_key": "22:5",
      "url": "Alafasy/mp3/022005.mp3"
    },
    {
      "verse_key": "22:6",
      "url": "Alafasy/mp3/022006.mp3"
    },
    {
      "verse_key": "22:7",
      "url": "Alafasy/mp3/022007.mp3"
    },
    {
      "verse_key": "22:8",
      "url": "Alafasy/mp3/022008.mp3"
    },
    {
      "verse_key": "22:9",
      "url": "Alafasy/mp3/022009.mp3"
    },
    {
      "verse_key": "22:10",
      "url": "Alafasy/mp3/022010.mp3"
    }
  ],
  "pagination": {
    "per_page": 10,
    "current_page": 1,
    "next_page": 2,
    "total_pages": 8,
    "total_records": 78
  }
}