{
  "audio_files": [
    {
      "verse_key": "25:1",
      "url": "Alafasy/mp3/025001.mp3"
    },
    {
      "verse_key": "25:2",
      "url": "Alafasy/mp3/025002.mp3"
    },
    {
      "verse_key": "25:3",
      "url": "Alafasy/mp3/025003.mp3"
    },
    {
      "verse_key": "25:4",
      "url": "Alafasy/mp3/025004.mp3"
    },
    {
      "verse_key": "25:5",
      "url": "Alafasy/mp3/025005.mp3"
    },
    {
      "verse_key": "25:6",
      "url": "Alafasy/mp3/025006.mp3"
    },
    {
      "verse_key": "25:7",
      "url": "Alafasy/mp3/025007.mp3"
    },
    {
      "verse_key": "25:8",
      "url": "Alafasy/mp3/025008.mp3"
    },
    {
      "verse_key": "25:9",
      "url": "Alafasy/mp3/025009.mp3"
    },
    {
      "verse_key": "25:10",
      "url": "Alafasy/mp3/025010.mp3"
    }
  ],
  "pagination": {
    "per_page": 10,
    "current_page": 1,
    "next_page": 2,
    "total_pages": 8,
    "total_records": 77
  }
}