{
  "audio_files": [
    {
      "verse_key": "26:1",
      "url": "Alafasy/mp3/026001.mp3"
    },
    {
      "verse_key": "26:2",
      "url": "Alafasy/mp3/026002.mp3"
    },
    {
      "verse_key": "26:3",
      "url": "Alafasy/mp3/026003.mp3"
    },
    {
      "verse_key": "26:4",
      "url": "Alafasy/mp3/026004.mp3"
    },
    {
      "verse_key": "26:5",
      "url": "Alafasy/mp3/026005.mp3"
    },
    {
      "verse_key": "26:6",
      "url": "Alafasy/mp3/026006.mp3"
    },
    {
      "verse_key": "26:7",
      "url": "Alafasy/mp3/026007.mp3"
    },
    {
      "verse_key": "26:8",
      "url": "Alafasy/mp3/026008.mp3"
    },
    {
      "verse_key": "26:9",
      "url": "Alafasy/mp3/026009.mp3"
    },
    {
      "verse_key": "26:10",
      "url": "Alafasy/mp3/026010.mp3"
    }
  ],
  "pagination": {
    "per_page": 10,
    "current_page": 1,
    "next_page": 2,
    "total_pages": 23,
    "total_records": 227
  }
}