{
  "audio_files": [
    {
      "verse_key": "27:1",
      "url": "Alafasy/mp3/027001.mp3"
    },
    {
      "verse_key": "27:2",
      "url": "Alafasy/mp3/027002.mp3"
    },
    {
      "verse_key": "27:3",
      "url": "Alafasy/mp3/027003.mp3"
    },
    {
      "verse_key": "27:4",
      "url": "Alafasy/mp3/027004.mp3"
    },
    {
      "verse_key": "27:5",
      "url": "Alafasy/mp3/027005.mp3"
    },
    {
      "verse_key": "27:6",
      "url": "Alafasy/mp3/027006.mp3"
    },
    {
      "verse_key": "27:7",
      "url": "Alafasy/mp3/027007.mp3"
    },
    {
      "verse_key": "27:8",
      "url": "Alafasy/mp3/027008.mp3"
    },
    {
      "verse_key": "27:9",
      "url": "Alafasy/mp3/027009.mp3"
    },
    {
      "verse_key": "27:10",
      "url": "Alafasy/mp3/027010.mp3"
    }
  ],
  "pagination": {
    "per_page": 10,
    "current_page": 1,
    "next_page": 2,
    "total_pages": 10,
    "total_records": 93
  }
}