{
  "audio_files": [
    {
      "verse_key": "3:1",
      "url": "Alafasy/mp3/003001.mp3"
    },
    {
      "verse_key": "3:2",
      "url": "Alafasy/mp3/003002.mp3"
    },
    {
      "verse_key": "3:3",
      "url": "Alafasy/mp3/003003.mp3"
    },
    {
      "verse_key": "3:4",
      "url": "Alafasy/mp3/003004.mp3"
    },
    {
      "verse_key": "3:5",
      "url": "Alafasy/mp3/003005.mp3"
    },
    {
      "verse_key": "3:6",
      "url": "Alafasy/mp3/003006.mp3"
    },
    {
      "verse_key": "3:7",
      "url": "Alafasy/mp3/003007.mp3"
    },
    {
      "verse_key": "3:8",
      "url": "Alafasy/mp3/003008.mp3"
    },
    {
      "verse_key": "3:9",
      "url": "Alafasy/mp3/003009.mp3"
    },
    {
      "verse_key": "3:10",
      "url": "Alafasy/mp3/003010.mp3"
    }
  ],
  "pagination": {
    "per_page": 10,
    "current_page": 1,
    "next_page": 2,
    "total_pages": 20,
    "total_records": 200
  }
}