{
  "audio_files": [
    {
      "verse_key": "30:1",
      "url": "Alafasy/mp3/030001.mp3"
    },
    {
      "verse_key": "30:2",
      "url": "Alafasy/mp3/030002.mp3"
    },
    {
      "verse_key": "30:3",
      "url": "Alafasy/mp3/030003.mp3"
    },
    {
      "verse_key": "30:4",
      "url": "Alafasy/mp3/030004.mp3"
    },
    {
      "verse_key": "30:5",
      "url": "Alafasy/mp3/030005.mp3"
    },
    {
      "verse_key": "30:6",
      "url": "Alafasy/mp3/030006.mp3"
    },
    {
      "verse_key": "30:7",
      "url": "Alafasy/mp3/030007.mp3"
    },
    {
      "verse_key": "30:8",
      "url": "Alafasy/mp3/030008.mp3"
    },
    {
      "verse_key": "30:9",
      "url": "Alafasy/mp3/030009.mp3"
    },
    {
      "verse_key": "30:10",
      "url": "Alafasy/mp3/030010.mp3"
    }
  ],
  "pagination": {
    "per_page": 10,
    "current_page": 1,
    "next_page": 2,
    "total_pages": 6,
    "total_records": 60
  }
}