{
  "audio_files": [
    {
      "verse_key": "31:1",
      "url": "Alafasy/mp3/031001.mp3"
    },
    {
      "verse_key": "31:2",
      "url": "Alafasy/mp3/031002.mp3"
    },
    {
      "verse_key": "31:3",
      "url": "Alafasy/mp3/031003.mp3"
    },
    {
      "verse_key": "31:4",
      "url": "Alafasy/mp3/031004.mp3"
    },
    {
      "verse_key": "31:5",
      "url": "Alafasy/mp3/031005.mp3"
    },
    {
      "verse_key": "31:6",
      "url": "Alafasy/mp3/031006.mp3"
    },
    {
      "verse_key": "31:7",
      "url": "Alafasy/mp3/031007.mp3"
    },
    {
      "verse_key": "31:8",
      "url": "Alafasy/mp3/031008.mp3"
    },
    {
      "verse_key": "31:9",
      "url": "Alafasy/mp3/031009.mp3"
    },
    {
      "verse_key": "31:10",
      "url": "Alafasy/mp3/031010.mp3"
    }
  ],
  "pagination": {
    "per_page": 10,
    "current_page": 1,
    "next_page": 2,
    "total_pages": 4,
    "total_records": 34
  }
}