{
  "audio_files": [
    {
      "verse_key": "33:1",
      "url": "Alafasy/mp3/033001.mp3"
    },
    {
      "verse_key": "33:2",
      "url": "Alafasy/mp3/033002.mp3"
    },
    {
      "verse_key": "33:3",
      "url": "Alafasy/mp3/033003.mp3"
    },
    {
      "verse_key": "33:4",
      "url": "Alafasy/mp3/033004.mp3"
    },
    {
      "verse_key": "33:5",
      "url": "Alafasy/mp3/033005.mp3"
    },
    {
      "verse_key": "33:6",
      "url": "Alafasy/mp3/033006.mp3"
    },
    {
      "verse_key": "33:7",
      "url": "Alafasy/mp3/033007.mp3"
    },
    {
      "verse_key": "33:8",
      "url": "Alafasy/mp3/033008.mp3"
    },
    {
      "verse_key": "33:9",
      "url": "Alafasy/mp3/033009.mp3"
    },
    {
      "verse_key": "33:10",
      "url": "Alafasy/mp3/033010.mp3"
    }
  ],
  "pagination": {
    "per_page": 10,
    "current_page": 1,
    "next_page": 2,
    "total_pages": 8,
    "total_records": 73
  }
}