{
  "audio_files": [
    {
      "verse_key": "34:1",
      "url": "Alafasy/mp3/034001.mp3"
    },
    {
      "verse_key": "34:2",
      "url": "Alafasy/mp3/034002.mp3"
    },
    {
      "verse_key": "34:3",
      "url": "Alafasy/mp3/034003.mp3"
    },
    {
      "verse_key": "34:4",
      "url": "Alafasy/mp3/034004.mp3"
    },
    {
      "verse_key": "34:5",
      "url": "Alafasy/mp3/034005.mp3"
    },
    {
      "verse_key": "34:6",
      "url": "Alafasy/mp3/034006.mp3"
    },
    {
      "verse_key": "34:7",
      "url": "Alafasy/mp3/034007.mp3"
    },
    {
      "verse_key": "34:8",
      "url": "Alafasy/mp3/034008.mp3"
    },
    {
      "verse_key": "34:9",
      "url": "Alafasy/mp3/034009.mp3"
    },
    {
      "verse_key": "34:10",
      "url": "Alafasy/mp3/034010.mp3"
    }
  ],
  "pagination": {
    "per_page": 10,
    "current_page": 1,
    "next_page": 2,
    "total_pages": 6,
    "total_records": 54
  }
}