{
  "audio_files": [
    {
      "verse_key": "4:1",
      "url": "Alafasy/mp3/004001.mp3"
    },
    {
      "verse_key": "4:2",
      "url": "Alafasy/mp3/004002.mp3"
    },
    {
      "verse_key": "4:3",
      "url": "Alafasy/mp3/004003.mp3"
    },
    {
      "verse_key": "4:4",
      "url": "Alafasy/mp3/004004.mp3"
    },
    {
      "verse_key": "4:5",
      "url": "Alafasy/mp3/004005.mp3"
    },
    {
      "verse_key": "4:6",
      "url": "Alafasy/mp3/004006.mp3"
    },
    {
      "verse_key": "4:7",
      "url": "Alafasy/mp3/004007.mp3"
    },
    {
      "verse_key": "4:8",
      "url": "Alafasy/mp3/004008.mp3"
    },
    {
      "verse_key": "4:9",
      "url": "Alafasy/mp3/004009.mp3"
    },
    {
      "verse_key": "4:10",
      "url": "Alafasy/mp3/004010.mp3"
    }
  ],
  "pagination": {
    "per_page": 10,
    "current_page": 1,
    "next_page": 2,
    "total_pages": 18,
    "total_records": 176
  }
}