{
  "audio_files": [
    {
      "verse_key": "42:1",
      "url": "Alafasy/mp3/042001.mp3"
    },
    {
      "verse_key": "42:2",
      "url": "Alafasy/mp3/042002.mp3"
    },
    {
      "verse_key": "42:3",
      "url": "Alafasy/mp3/042003.mp3"
    },
    {
      "verse_key": "42:4",
      "url": "Alafasy/mp3/042004.mp3"
    },
    {
      "verse_key": "42:5",
      "url": "Alafasy/mp3/042005.mp3"
    },
    {
      "verse_key": "42:6",
      "url": "Alafasy/mp3/042006.mp3"
    },
    {
      "verse_key": "42:7",
      "url": "Alafasy/mp3/042007.mp3"
    },
    {
      "verse_key": "42:8",
      "url": "Alafasy/mp3/042008.mp3"
    },
    {
      "verse_key": "42:9",
      "url": "Alafasy/mp3/042009.mp3"
    },
    {
      "verse_key": "42:10",
      "url": "Alafasy/mp3/042010.mp3"
    }
  ],
  "pagination": {
    "per_page": 10,
    "current_page": 1,
    "next_page": 2,
    "total_pages": 6,
    "total_records": 53
  }
}