{
  "audio_files": [
    {
      "verse_key": "44:1",
      "url": "Alafasy/mp3/044001.mp3"
    },
    {
      "verse_key": "44:2",
      "url": "Alafasy/mp3/044002.mp3"
    },
    {
      "verse_key": "44:3",
      "url": "Alafasy/mp3/044003.mp3"
    },
    {
      "verse_key": "44:4",
      "url": "Alafasy/mp3/044004.mp3"
    },
    {
      "verse_key": "44:5",
      "url": "Alafasy/mp3/044005.mp3"
    },
    {
      "verse_key": "44:6",
      "url": "Alafasy/mp3/044006.mp3"
    },
    {
      "verse_key": "44:7",
      "url": "Alafasy/mp3/044007.mp3"
    },
    {
      "verse_key": "44:8",
      "url": "Alafasy/mp3/044008.mp3"
    },
    {
      "verse_key": "44:9",
      "url": "Alafasy/mp3/044009.mp3"
    },
    {
      "verse_key": "44:10",
      "url": "Alafasy/mp3/044010.mp3"
    }
  ],
  "pagination": {
    "per_page": 10,
    "current_page": 1,
    "next_page": 2,
    "total_pages": 6,
    "total_records": 59
  }
}