{
  "audio_files": [
    {
      "verse_key": "5:1",
      "url": "Alafasy/mp3/005001.mp3"
    },
    {
      "verse_key": "5:2",
      "url": "Alafasy/mp3/005002.mp3"
    },
    {
      "verse_key": "5:3",
      "url": "Alafasy/mp3/005003.mp3"
    },
    {
      "verse_key": "5:4",
      "url": "Alafasy/mp3/005004.mp3"
    },
    {
      "verse_key": "5:5",
      "url": "Alafasy/mp3/005005.mp3"
    },
    {
      "verse_key": "5:6",
      "url": "Alafasy/mp3/005006.mp3"
    },
    {
      "verse_key": "5:7",
      "url": "Alafasy/mp3/005007.mp3"
    },
    {
      "verse_key": "5:8",
      "url": "Alafasy/mp3/005008.mp3"
    },
    {
      "verse_key": "5:9",
      "url": "Alafasy/mp3/005009.mp3"
    },
    {
      "verse_key": "5:10",
      "url": "Alafasy/mp3/005010.mp3"
    }
  ],
  "pagination": {
    "per_page": 10,
    "current_page": 1,
    "next_page": 2,
    "total_pages": 12,
    "total_records": 120
  }
}