{
  "audio_files": [
    {
      "verse_key": "50:1",
      "url": "Alafasy/mp3/050001.mp3"
    },
    {
      "verse_key": "50:2",
      "url": "Alafasy/mp3/050002.mp3"
    },
    {
      "verse_key": "50:3",
      "url": "Alafasy/mp3/050003.mp3"
    },
    {
      "verse_key": "50:4",
      "url": "Alafasy/mp3/050004.mp3"
    },
    {
      "verse_key": "50:5",
      "url": "Alafasy/mp3/050005.mp3"
    },
    {
      "verse_key": "50:6",
      "url": "Alafasy/mp3/050006.mp3"
    },
    {
      "verse_key": "50:7",
      "url": "Alafasy/mp3/050007.mp3"
    },
    {
      "verse_key": "50:8",
      "url": "Alafasy/mp3/050008.mp3"
    },
    {
      "verse_key": "50:9",
      "url": "Alafasy/mp3/050009.mp3"
    },
    {
      "verse_key": "50:10",
      "url": "Alafasy/mp3/050010.mp3"
    }
  ],
  "pagination": {
    "per_page": 10,
    "current_page": 1,
    "next_page": 2,
    "total_pages": 5,
    "total_records": 45
  }
}