{
  "audio_files": [
    {
      "verse_key": "51:1",
      "url": "Alafasy/mp3/051001.mp3"
    },
    {
      "verse_key": "51:2",
      "url": "Alafasy/mp3/051002.mp3"
    },
    {
      "verse_key": "51:3",
      "url": "Alafasy/mp3/051003.mp3"
    },
    {
      "verse_key": "51:4",
      "url": "Alafasy/mp3/051004.mp3"
    },
    {
      "verse_key": "51:5",
      "url": "Alafasy/mp3/051005.mp3"
    },
    {
      "verse_key": "51:6",
      "url": "Alafasy/mp3/051006.mp3"
    },
    {
      "verse_key": "51:7",
      "url": "Alafasy/mp3/051007.mp3"
    },
    {
      "verse_key": "51:8",
      "url": "Alafasy/mp3/051008.mp3"
    },
    {
      "verse_key": "51:9",
      "url": "Alafasy/mp3/051009.mp3"
    },
    {
      "verse_key": "51:10",
      "url": "Alafasy/mp3/051010.mp3"
    }
  ],
  "pagination": {
    "per_page": 10,
    "current_page": 1,
    "next_page": 2,
    "total_pages": 6,
    "total_records": 60
  }
}