{
  "audio_files": [
    {
      "verse_key": "53:1",
      "url": "Alafasy/mp3/053001.mp3"
    },
    {
      "verse_key": "53:2",
      "url": "Alafasy/mp3/053002.mp3"
    },
    {
      "verse_key": "53:3",
      "url": "Alafasy/mp3/053003.mp3"
    },
    {
      "verse_key": "53:4",
      "url": "Alafasy/mp3/053004.mp3"
    },
    {
      "verse_key": "53:5",
      "url": "Alafasy/mp3/053005.mp3"
    },
    {
      "verse_key": "53:6",
      "url": "Alafasy/mp3/053006.mp3"
    },
    {
      "verse_key": "53:7",
      "url": "Alafasy/mp3/053007.mp3"
    },
    {
      "verse_key": "53:8",
      "url": "Alafasy/mp3/053008.mp3"
    },
    {
      "verse_key": "53:9",
      "url": "Alafasy/mp3/053009.mp3"
    },
    {
      "verse_key": "53:10",
      "url": "Alafasy/mp3/053010.mp3"
    }
  ],
  "pagination": {
    "per_page": 10,
    "current_page": 1,
    "next_page": 2,
    "total_pages": 7,
    "total_records": 62
  }
}