{
  "audio_files": [
    {
      "verse_key": "58:1",
      "url": "Alafasy/mp3/058001.mp3"
    },
    {
      "verse_key": "58:2",
      "url": "Alafasy/mp3/058002.mp3"
    },
    {
      "verse_key": "58:3",
      "url": "Alafasy/mp3/058003.mp3"
    },
    {
      "verse_key": "58:4",
      "url": "Alafasy/mp3/058004.mp3"
    },
    {
      "verse_key": "58:5",
      "url": "Alafasy/mp3/058005.mp3"
    },
    {
      "verse_key": "58:6",
      "url": "Alafasy/mp3/058006.mp3"
    },
    {
      "verse_key": "58:7",
      "url": "Alafasy/mp3/058007.mp3"
    },
    {
      "verse_key": "58:8",
      "url": "Alafasy/mp3/058008.mp3"
    },
    {
      "verse_key": "58:9",
      "url": "Alafasy/mp3/058009.mp3"
    },
    {
      "verse_key": "58:10",
      "url": "Alafasy/mp3/058010.mp3"
    }
  ],
  "pagination": {
    "per_page": 10,
    "current_page": 1,
    "next_page": 2,
    "total_pages": 3,
    "total_records": 22
  }
}