{
  "audio_files": [
    {
      "verse_key": "59:1",
      "url": "Alafasy/mp3/059001.mp3"
    },
    {
      "verse_key": "59:2",
      "url": "Alafasy/mp3/059002.mp3"
    },
    {
      "verse_key": "59:3",
      "url": "Alafasy/mp3/059003.mp3"
    },
    {
      "verse_key": "59:4",
      "url": "Alafasy/mp3/059004.mp3"
    },
    {
      "verse_key": "59:5",
      "url": "Alafasy/mp3/059005.mp3"
    },
    {
      "verse_key": "59:6",
      "url": "Alafasy/mp3/059006.mp3"
    },
    {
      "verse_key": "59:7",
      "url": "Alafasy/mp3/059007.mp3"
    },
    {
      "verse_key": "59:8",
      "url": "Alafasy/mp3/059008.mp3"
    },
    {
      "verse_key": "59:9",
      "url": "Alafasy/mp3/059009.mp3"
    },
    {
      "verse_key": "59:10",
      "url": "Alafasy/mp3/059010.mp3"
    }
  ],
  "pagination": {
    "per_page": 10,
    "current_page": 1,
    "next_page": 2,
    "total_pages": 3,
    "total_records": 24
  }
}