{
  "audio_files": [
    {
      "verse_key": "6:1",
      "url": "Alafasy/mp3/006001.mp3"
    },
    {
      "verse_key": "6:2",
      "url": "Alafasy/mp3/006002.mp3"
    },
    {
      "verse_key": "6:3",
      "url": "Alafasy/mp3/006003.mp3"
    },
    {
      "verse_key": "6:4",
      "url": "Alafasy/mp3/006004.mp3"
    },
    {
      "verse_key": "6:5",
      "url": "Alafasy/mp3/006005.mp3"
    },
    {
      "verse_key": "6:6",
      "url": "Alafasy/mp3/006006.mp3"
    },
    {
      "verse_key": "6:7",
      "url": "Alafasy/mp3/006007.mp3"
    },
    {
      "verse_key": "6:8",
      "url": "Alafasy/mp3/006008.mp3"
    },
    {
      "verse_key": "6:9",
      "url": "Alafasy/mp3/006009.mp3"
    },
    {
      "verse_key": "6:10",
      "url": "Alafasy/mp3/006010.mp3"
    }
  ],
  "pagination": {
    "per_page": 10,
    "current_page": 1,
    "next_page": 2,
    "total_pages": 17,
    "total_records": 165
  }
}