{
  "audio_files": [
    {
      "verse_key": "61:1",
      "url": "Alafasy/mp3/061001.mp3"
    },
    {
      "verse_key": "61:2",
      "url": "Alafasy/mp3/061002.mp3"
    },
    {
      "verse_key": "61:3",
      "url": "Alafasy/mp3/061003.mp3"
    },
    {
      "verse_key": "61:4",
      "url": "Alafasy/mp3/061004.mp3"
    },
    {
      "verse_key": "61:5",
      "url": "Alafasy/mp3/061005.mp3"
    },
    {
      "verse_key": "61:6",
      "url": "Alafasy/mp3/061006.mp3"
    },
    {
      "verse_key": "61:7",
      "url": "Alafasy/mp3/061007.mp3"
    },
    {
      "verse_key": "61:8",
      "url": "Alafasy/mp3/061008.mp3"
    },
    {
      "verse_key": "61:9",
      "url": "Alafasy/mp3/061009.mp3"
    },
    {
      "verse_key": "61:10",
      "url": "Alafasy/mp3/061010.mp3"
    }
  ],
  "pagination": {
    "per_page": 10,
    "current_page": 1,
    "next_page": 2,
    "total_pages": 2,
    "total_records": 14
  }
}