{
  "audio_files": [
    {
      "verse_key": "63:1",
      "url": "Alafasy/mp3/063001.mp3"
    },
    {
      "verse_key": "63:2",
      "url": "Alafasy/mp3/063002.mp3"
    },
    {
      "verse_key": "63:3",
      "url": "Alafasy/mp3/063003.mp3"
    },
    {
      "verse_key": "63:4",
      "url": "Alafasy/mp3/063004.mp3"
    },
    {
      "verse_key": "63:5",
      "url": "Alafasy/mp3/063005.mp3"
    },
    {
      "verse_key": "63:6",
      "url": "Alafasy/mp3/063006.mp3"
    },
    {
      "verse_key": "63:7",
      "url": "Alafasy/mp3/063007.mp3"
    },
    {
      "verse_key": "63:8",
      "url": "Alafasy/mp3/063008.mp3"
    },
    {
      "verse_key": "63:9",
      "url": "Alafasy/mp3/063009.mp3"
    },
    {
      "verse_key": "63:10",
      "url": "Alafasy/mp3/063010.mp3"
    }
  ],
  "pagination": {
    "per_page": 10,
    "current_page": 1,
    "next_page": 2,
    "total_pages": 2,
    "total_records": 11
  }
}