{
  "audio_files": [
    {
      "verse_key": "64:1",
      "url": "Alafasy/mp3/064001.mp3"
    },
    {
      "verse_key": "64:2",
      "url": "Alafasy/mp3/064002.mp3"
    },
    {
      "verse_key": "64:3",
      "url": "Alafasy/mp3/064003.mp3"
    },
    {
      "verse_key": "64:4",
      "url": "Alafasy/mp3/064004.mp3"
    },
    {
      "verse_key": "64:5",
      "url": "Alafasy/mp3/064005.mp3"
    },
    {
      "verse_key": "64:6",
      "url": "Alafasy/mp3/064006.mp3"
    },
    {
      "verse_key": "64:7",
      "url": "Alafasy/mp3/064007.mp3"
    },
    {
      "verse_key": "64:8",
      "url": "Alafasy/mp3/064008.mp3"
    },
    {
      "verse_key": "64:9",
      "url": "Alafasy/mp3/064009.mp3"
    },
    {
      "verse_key": "64:10",
      "url": "Alafasy/mp3/064010.mp3"
    }
  ],
  "pagination": {
    "per_page": 10,
    "current_page": 1,
    "next_page": 2,
    "total_pages": 2,
    "total_records": 18
  }
}