{
  "audio_files": [
    {
      "verse_key": "66:1",
      "url": "Alafasy/mp3/066001.mp3"
    },
    {
      "verse_key": "66:2",
      "url": "Alafasy/mp3/066002.mp3"
    },
    {
      "verse_key": "66:3",
      "url": "Alafasy/mp3/066003.mp3"
    },
    {
      "verse_key": "66:4",
      "url": "Alafasy/mp3/066004.mp3"
    },
    {
      "verse_key": "66:5",
      "url": "Alafasy/mp3/066005.mp3"
    },
    {
      "verse_key": "66:6",
      "url": "Alafasy/mp3/066006.mp3"
    },
    {
      "verse_key": "66:7",
      "url": "Alafasy/mp3/066007.mp3"
    },
    {
      "verse_key": "66:8",
      "url": "Alafasy/mp3/066008.mp3"
    },
    {
      "verse_key": "66:9",
      "url": "Alafasy/mp3/066009.mp3"
    },
    {
      "verse_key": "66:10",
      "url": "Alafasy/mp3/066010.mp3"
    }
  ],
  "pagination": {
    "per_page": 10,
    "current_page": 1,
    "next_page": 2,
    "total_pages": 2,
    "total_records": 12
  }
}