{
  "audio_files": [
    {
      "verse_key": "71:1",
      "url": "Alafasy/mp3/071001.mp3"
    },
    {
      "verse_key": "71:2",
      "url": "Alafasy/mp3/071002.mp3"
    },
    {
      "verse_key": "71:3",
      "url": "Alafasy/mp3/071003.mp3"
    },
    {
      "verse_key": "71:4",
      "url": "Alafasy/mp3/071004.mp3"
    },
    {
      "verse_key": "71:5",
      "url": "Alafasy/mp3/071005.mp3"
    },
    {
      "verse_key": "71:6",
      "url": "Alafasy/mp3/071006.mp3"
    },
    {
      "verse_key": "71:7",
      "url": "Alafasy/mp3/071007.mp3"
    },
    {
      "verse_key": "71:8",
      "url": "Alafasy/mp3/071008.mp3"
    },
    {
      "verse_key": "71:9",
      "url": "Alafasy/mp3/071009.mp3"
    },
    {
      "verse_key": "71:10",
      "url": "Alafasy/mp3/071010.mp3"
    }
  ],
  "pagination": {
    "per_page": 10,
    "current_page": 1,
    "next_page": 2,
    "total_pages": 3,
    "total_records": 28
  }
}