{
  "audio_files": [
    {
      "verse_key": "72:1",
      "url": "Alafasy/mp3/072001.mp3"
    },
    {
      "verse_key": "72:2",
      "url": "Alafasy/mp3/072002.mp3"
    },
    {
      "verse_key": "72:3",
      "url": "Alafasy/mp3/072003.mp3"
    },
    {
      "verse_key": "72:4",
      "url": "Alafasy/mp3/072004.mp3"
    },
    {
      "verse_key": "72:5",
      "url": "Alafasy/mp3/072005.mp3"
    },
    {
      "verse_key": "72:6",
      "url": "Alafasy/mp3/072006.mp3"
    },
    {
      "verse_key": "72:7",
      "url": "Alafasy/mp3/072007.mp3"
    },
    {
      "verse_key": "72:8",
      "url": "Alafasy/mp3/072008.mp3"
    },
    {
      "verse_key": "72:9",
      "url": "Alafasy/mp3/072009.mp3"
    },
    {
      "verse_key": "72:10",
      "url": "Alafasy/mp3/072010.mp3"
    }
  ],
  "pagination": {
    "per_page": 10,
    "current_page": 1,
    "next_page": 2,
    "total_pages": 3,
    "total_records": 28
  }
}