{
  "audio_files": [
    {
      "verse_key": "74:1",
      "url": "Alafasy/mp3/074001.mp3"
    },
    {
      "verse_key": "74:2",
      "url": "Alafasy/mp3/074002.mp3"
    },
    {
      "verse_key": "74:3",
      "url": "Alafasy/mp3/074003.mp3"
    },
    {
      "verse_key": "74:4",
      "url": "Alafasy/mp3/074004.mp3"
    },
    {
      "verse_key": "74:5",
      "url": "Alafasy/mp3/074005.mp3"
    },
    {
      "verse_key": "74:6",
      "url": "Alafasy/mp3/074006.mp3"
    },
    {
      "verse_key": "74:7",
      "url": "Alafasy/mp3/074007.mp3"
    },
    {
      "verse_key": "74:8",
      "url": "Alafasy/mp3/074008.mp3"
    },
    {
      "verse_key": "74:9",
      "url": "Alafasy/mp3/074009.mp3"
    },
    {
      "verse_key": "74:10",
      "url": "Alafasy/mp3/074010.mp3"
    }
  ],
  "pagination": {
    "per_page": 10,
    "current_page": 1,
    "next_page": 2,
    "total_pages": 6,
    "total_records": 56
  }
}