{
  "audio_files": [
    {
      "verse_key": "75:1",
      "url": "Alafasy/mp3/075001.mp3"
    },
    {
      "verse_key": "75:2",
      "url": "Alafasy/mp3/075002.mp3"
    },
    {
      "verse_key": "75:3",
      "url": "Alafasy/mp3/075003.mp3"
    },
    {
      "verse_key": "75:4",
      "url": "Alafasy/mp3/075004.mp3"
    },
    {
      "verse_key": "75:5",
      "url": "Alafasy/mp3/075005.mp3"
    },
    {
      "verse_key": "75:6",
      "url": "Alafasy/mp3/075006.mp3"
    },
    {
      "verse_key": "75:7",
      "url": "Alafasy/mp3/075007.mp3"
    },
    {
      "verse_key": "75:8",
      "url": "Alafasy/mp3/075008.mp3"
    },
    {
      "verse_key": "75:9",
      "url": "Alafasy/mp3/075009.mp3"
    },
    {
      "verse_key": "75:10",
      "url": "Alafasy/mp3/075010.mp3"
    }
  ],
  "pagination": {
    "per_page": 10,
    "current_page": 1,
    "next_page": 2,
    "total_pages": 4,
    "total_records": 40
  }
}