{
  "audio_files": [
    {
      "verse_key": "77:1",
      "url": "Alafasy/mp3/077001.mp3"
    },
    {
      "verse_key": "77:2",
      "url": "Alafasy/mp3/077002.mp3"
    },
    {
      "verse_key": "77:3",
      "url": "Alafasy/mp3/077003.mp3"
    },
    {
      "verse_key": "77:4",
      "url": "Alafasy/mp3/077004.mp3"
    },
    {
      "verse_key": "77:5",
      "url": "Alafasy/mp3/077005.mp3"
    },
    {
      "verse_key": "77:6",
      "url": "Alafasy/mp3/077006.mp3"
    },
    {
      "verse_key": "77:7",
      "url": "Alafasy/mp3/077007.mp3"
    },
    {
      "verse_key": "77:8",
      "url": "Alafasy/mp3/077008.mp3"
    },
    {
      "verse_key": "77:9",
      "url": "Alafasy/mp3/077009.mp3"
    },
    {
      "verse_key": "77:10",
      "url": "Alafasy/mp3/077010.mp3"
    }
  ],
  "pagination": {
    "per_page": 10,
    "current_page": 1,
    "next_page": 2,
    "total_pages": 5,
    "total_records": 50
  }
}