{
  "audio_files": [
    {
      "verse_key": "78:1",
      "url": "Alafasy/mp3/078001.mp3"
    },
    {
      "verse_key": "78:2",
      "url": "Alafasy/mp3/078002.mp3"
    },
    {
      "verse_key": "78:3",
      "url": "Alafasy/mp3/078003.mp3"
    },
    {
      "verse_key": "78:4",
      "url": "Alafasy/mp3/078004.mp3"
    },
    {
      "verse_key": "78:5",
      "url": "Alafasy/mp3/078005.mp3"
    },
    {
      "verse_key": "78:6",
      "url": "Alafasy/mp3/078006.mp3"
    },
    {
      "verse_key": "78:7",
      "url": "Alafasy/mp3/078007.mp3"
    },
    {
      "verse_key": "78:8",
      "url": "Alafasy/mp3/078008.mp3"
    },
    {
      "verse_key": "78:9",
      "url": "Alafasy/mp3/078009.mp3"
    },
    {
      "verse_key": "78:10",
      "url": "Alafasy/mp3/078010.mp3"
    }
  ],
  "pagination": {
    "per_page": 10,
    "current_page": 1,
    "next_page": 2,
    "total_pages": 4,
    "total_records": 40
  }
}