{
  "audio_files": [
    {
      "verse_key": "8:1",
      "url": "Alafasy/mp3/008001.mp3"
    },
    {
      "verse_key": "8:2",
      "url": "Alafasy/mp3/008002.mp3"
    },
    {
      "verse_key": "8:3",
      "url": "Alafasy/mp3/008003.mp3"
    },
    {
      "verse_key": "8:4",
      "url": "Alafasy/mp3/008004.mp3"
    },
    {
      "verse_key": "8:5",
      "url": "Alafasy/mp3/008005.mp3"
    },
    {
      "verse_key": "8:6",
      "url": "Alafasy/mp3/008006.mp3"
    },
    {
      "verse_key": "8:7",
      "url": "Alafasy/mp3/008007.mp3"
    },
    {
      "verse_key": "8:8",
      "url": "Alafasy/mp3/008008.mp3"
    },
    {
      "verse_key": "8:9",
      "url": "Alafasy/mp3/008009.mp3"
    },
    {
      "verse_key": "8:10",
      "url": "Alafasy/mp3/008010.mp3"
    }
  ],
  "pagination": {
    "per_page": 10,
    "current_page": 1,
    "next_page": 2,
    "total_pages": 8,
    "total_records": 75
  }
}