{
  "audio_files": [
    {
      "verse_key": "82:1",
      "url": "Alafasy/mp3/082001.mp3"
    },
    {
      "verse_key": "82:2",
      "url": "Alafasy/mp3/082002.mp3"
    },
    {
      "verse_key": "82:3",
      "url": "Alafasy/mp3/082003.mp3"
    },
    {
      "verse_key": "82:4",
      "url": "Alafasy/mp3/082004.mp3"
    },
    {
      "verse_key": "82:5",
      "url": "Alafasy/mp3/082005.mp3"
    },
    {
      "verse_key": "82:6",
      "url": "Alafasy/mp3/082006.mp3"
    },
    {
      "verse_key": "82:7",
      "url": "Alafasy/mp3/082007.mp3"
    },
    {
      "verse_key": "82:8",
      "url": "Alafasy/mp3/082008.mp3"
    },
    {
      "verse_key": "82:9",
      "url": "Alafasy/mp3/082009.mp3"
    },
    {
      "verse_key": "82:10",
      "url": "Alafasy/mp3/082010.mp3"
    }
  ],
  "pagination": {
    "per_page": 10,
    "current_page": 1,
    "next_page": 2,
    "total_pages": 2,
    "total_records": 19
  }
}