{
  "audio_files": [
    {
      "verse_key": "89:1",
      "url": "Alafasy/mp3/089001.mp3"
    },
    {
      "verse_key": "89:2",
      "url": "Alafasy/mp3/089002.mp3"
    },
    {
      "verse_key": "89:3",
      "url": "Alafasy/mp3/089003.mp3"
    },
    {
      "verse_key": "89:4",
      "url": "Alafasy/mp3/089004.mp3"
    },
    {
      "verse_key": "89:5",
      "url": "Alafasy/mp3/089005.mp3"
    },
    {
      "verse_key": "89:6",
      "url": "Alafasy/mp3/089006.mp3"
    },
    {
      "verse_key": "89:7",
      "url": "Alafasy/mp3/089007.mp3"
    },
    {
      "verse_key": "89:8",
      "url": "Alafasy/mp3/089008.mp3"
    },
    {
      "verse_key": "89:9",
      "url": "Alafasy/mp3/089009.mp3"
    },
    {
      "verse_key": "89:10",
      "url": "Alafasy/mp3/089010.mp3"
    }
  ],
  "pagination": {
    "per_page": 10,
    "current_page": 1,
    "next_page": 2,
    "total_pages": 3,
    "total_records": 30
  }
}