{
  "audio_files": [
    {
      "verse_key": "9:1",
      "url": "Alafasy/mp3/009001.mp3"
    },
    {
      "verse_key": "9:2",
      "url": "Alafasy/mp3/009002.mp3"
    },
    {
      "verse_key": "9:3",
      "url": "Alafasy/mp3/009003.mp3"
    },
    {
      "verse_key": "9:4",
      "url": "Alafasy/mp3/009004.mp3"
    },
    {
      "verse_key": "9:5",
      "url": "Alafasy/mp3/009005.mp3"
    },
    {
      "verse_key": "9:6",
      "url": "Alafasy/mp3/009006.mp3"
    },
    {
      "verse_key": "9:7",
      "url": "Alafasy/mp3/009007.mp3"
    },
    {
      "verse_key": "9:8",
      "url": "Alafasy/mp3/009008.mp3"
    },
    {
      "verse_key": "9:9",
      "url": "Alafasy/mp3/009009.mp3"
    },
    {
      "verse_key": "9:10",
      "url": "Alafasy/mp3/009010.mp3"
    }
  ],
  "pagination": {
    "per_page": 10,
    "current_page": 1,
    "next_page": 2,
    "total_pages": 13,
    "total_records": 129
  }
}