{
  "audio_files": [
    {
      "verse_key": "90:1",
      "url": "Alafasy/mp3/090001.mp3"
    },
    {
      "verse_key": "90:2",
      "url": "Alafasy/mp3/090002.mp3"
    },
    {
      "verse_key": "90:3",
      "url": "Alafasy/mp3/090003.mp3"
    },
    {
      "verse_key": "90:4",
      "url": "Alafasy/mp3/090004.mp3"
    },
    {
      "verse_key": "90:5",
      "url": "Alafasy/mp3/090005.mp3"
    },
    {
      "verse_key": "90:6",
      "url": "Alafasy/mp3/090006.mp3"
    },
    {
      "verse_key": "90:7",
      "url": "Alafasy/mp3/090007.mp3"
    },
    {
      "verse_key": "90:8",
      "url": "Alafasy/mp3/090008.mp3"
    },
    {
      "verse_key": "90:9",
      "url": "Alafasy/mp3/090009.mp3"
    },
    {
      "verse_key": "90:10",
      "url": "Alafasy/mp3/090010.mp3"
    }
  ],
  "pagination": {
    "per_page": 10,
    "current_page": 1,
    "next_page": 2,
    "total_pages": 2,
    "total_records": 20
  }
}